[
R1
RESISTOR3
2M2



]
[
R2
RESISTOR3
5k6



]
[
R4
RESISTOR3
4k7



]
[
R7
RESISTOR3
100k



]
[
C1
CAP_FILM
100n



]
[
IC1
DIP8
TL072



]
[
R9
RESISTOR3
10k



]
[
R10
RESISTOR3
10k



]
[
C6
CAP_FILM
47n



]
[
RT2
TRIM_VERT
10k-B



]
[
Color
PADS3
10k-B



]
[
R11
RESISTOR3
470R



]
[
C11
CAP_FILM
100n



]
[
R13
RESISTOR3
1M



]
[
R14
RESISTOR3
470k



]
[
Q1
TO92
2N5088



]
[
R15
RESISTOR3
10k



]
[
R16
RESISTOR3
4k7



]
[
C12
CAP_FILM
100n



]
[
Out
PAD
Out



]
[
In
PAD
In



]
[
IC3
DIP8
TL062



]
[
R17
RESISTOR3
18k



]
[
R18
RESISTOR3
10k



]
[
R19
RESISTOR3
5k6



]
[
R22
RESISTOR3
10k



]
[
R21
RESISTOR3
27k



]
[
R24
RESISTOR3
39k



]
[
Range
PADS3
100k-B



]
[
R25
RESISTOR3
3k3



]
[
R27
RESISTOR3
2k7



]
[
Q2
TO92
2N5087



]
[
R26
RESISTOR3
22k



]
[
R28
RESISTOR3
10k



]
[
IC5
DIP14
CD4013



]
[
R12
RESISTOR3
470R



]
[
IC2
DIP16
SAD1024



]
[
R29
RESISTOR3
220R



]
[
G_In
PAD
Gnd



]
[
G_Out
PAD
Gnd



]
[
C13
CAP_ELECTRO_200
10u



]
[
R23
RESISTOR3
33k



]
[
R30
RESISTOR3
220k



]
[
R6
RESISTOR3
6k8



]
[
C18
CAP_ELECTRO_250
220u



]
[
R3
RESISTOR3
100k



]
[
R5
RESISTOR3
470R



]
[
R8
RESISTOR3
13k



]
[
R20
RESISTOR3
39k



]
[
R31
RESISTOR3
47R



]
[
18V
PAD
18V



]
[
Gnd
PAD
Gnd



]
[
C2
CAP_FILM
2n7



]
[
C3
CAP_FILM
47n



]
[
C4
CAP_FILM
1n



]
[
C5
CAP_FILM
47n



]
[
C8
CAP_FILM
4n7



]
[
C7
CAP_FILM
3n3



]
[
C9
CAP_FILM
47n



]
[
C10
CAP_FILM
47n



]
[
C16
CAP_CERAMIC
470p



]
[
C17
CAP_CERAMIC
100n



]
[
C14
CAP_ELECTRO_200
10u



]
[
C15
CAP_ELECTRO_200
10u



]
[
C19
CAP_ELECTRO_250
100u



]
[
C20
CAP_ELECTRO_250
100u



]
[
U1
TO92
78L12



]
[
D3
DIODE3
1N4001



]
[
D1
DIODE3
1N4001



]
[
D2
DIODE3
1N4148



]
[
IC4
DIP8
LM311



]
[
SW
PADS3
SW



]
[
RT4
TRIM_VERT
10k-B



]
[
Rate
PADS3
1M-C



]
[
RT3
TRIM_VERT
20k-B



]
[
RT1
TRIM_VERT
1k-B



]
(
TCPOWERBAR
G_In-1
R1-2
IC5-10
IC5-11
G_Out-1
R16-2
R14-2
Color-1
R26-1
R19-2
IC2-1
IC2-4
IC2-13
IC2-15
IC1-4
R11-2
IC5-7
IC5-9
IC5-8
R12-2
IC3-4
IC2-10
IC2-14
IC2-16
C13-2
IC5-4
IC5-6
RT3-3
C7-2
R9-2
C16-1
C2-1
C20-2
C19-2
C18-2
Gnd-1
IC4-4
IC4-1
C17-1
U1-2
)
(
Clock2
IC5-5
IC5-2
IC2-8
)
(
Clock1
IC5-1
IC2-3
)
(
Vcc
IC2-9
IC2-7
R15-1
R13-1
IC1-8
IC5-14
RT3-1
IC2-11
IC2-12
IC4-6
IC4-8
IC4-5
R28-2
R27-2
D1-1
D3-1
R31-1
U1-1
C19-1
)
(
Vcc_LFO
R31-2
C20-1
R17-1
IC3-8
R24-1
)
(
N000000
R2-2
C1-1
)
(
N000001
R7-1
R3-1
RT3-2
C13-1
)
(
N000002
C1-2
In-1
R1-1
)
(
N000003
IC1-5
R2-1
C2-2
R3-2
)
(
N000004
IC1-6
C3-1
IC1-7
R4-1
)
(
N000005
C6-2
RT1-2
R9-1
C7-1
)
(
N000006
RT2-2
R10-1
C6-1
RT2-1
)
(
N000007
Color-2
C8-2
)
(
N000008
C11-2
C5-2
C10-1
R10-2
)
(
N000009
R13-2
Q1-2
R14-1
C11-1
)
(
N000010
Q1-3
R15-2
C12-2
)
(
N000011
Q1-1
R16-1
)
(
N000012
C12-1
Out-1
)
(
N000013
IC3-2
IC3-5
R17-2
R18-1
)
(
N000014
IC3-6
C14-1
R22-1
R23-1
)
(
N000015
R21-1
C15-1
IC3-7
SW-3
)
(
N000016
R21-2
IC3-3
R20-1
)
(
N000017
Range-1
R18-2
R19-1
)
(
N000018
Range-2
R30-1
)
(
N000019
R25-1
Q2-2
R26-2
)
(
N000020
Q2-1
RT4-3
)
(
N000021
IC2-5
RT1-3
)
(
N000022
R29-2
D2-2
R28-1
)
(
N000023
R30-2
IC4-2
C17-2
)
(
N000024
R6-2
C4-2
R8-2
IC2-2
IC1-1
)
(
N000025
IC5-3
R29-1
IC4-7
)
(
N000026
R8-1
C5-1
)
(
N000027
R20-2
IC3-1
Rate-2
)
(
N000028
C3-2
R4-2
R5-2
)
(
N000029
C4-1
R5-1
R6-1
IC1-2
)
(
N000030
C8-1
R7-2
IC1-3
)
(
N000031
C9-1
RT2-3
Color-3
)
(
N000032
C9-2
R11-1
)
(
N000033
C10-2
R12-1
)
(
N000034
C14-2
C15-2
)
(
N000035
D3-2
18V-1
C18-1
U1-3
)
(
N000036
D1-2
R25-2
)
(
N000037
IC4-3
Q2-3
C16-2
D2-1
)
(
N000038
SW-2
Range-3
)
(
N000039
SW-1
R24-2
)
(
N000040
RT4-2
R27-1
RT4-1
)
(
N000041
RT1-1
IC2-6
)
(
N000042
R23-2
Rate-3
R22-2
)
